Matthew

Christian
Michael
Piper

Billy

Ryan

Christoph

Tim
Morgan
Bob

Christian
Michael

Matt

Henry
Martin
Jack

Miles

Jessica

Samuel

Guy

John

Rosalind

Jamie

Gretchen

Adam
Emily

Idris

Emma
